

--------------------------------------------------------------------------------
[INFO] print datetime here
[INFO] report for data-file: /Users/adrian/work/daqaethmobile/dynamic/data/04_peakID/2019-02-01_Analysis-L-B10-P25-O10-A10.csv
--------------------------------------------------------------------------------

Window size: 600

PEAK IDENTIFICATION
SD mult for peak identification: 2.5
(uncorrected) peak count AE: 183
(uncorrected) peak count DT: 314

run count AE: 21
run count DT: 57

 count of peaks in agreement: 1610
count of runs in agreedPeaks: 13

END ..