

--------------------------------------------------------------------------------
[INFO] print datetime here
[INFO] report for data-file: /Users/adrian/work/daqaethmobile/dynamic/data/03_baselined/2019-02-01_Analysis-L-B10.csv
--------------------------------------------------------------------------------

Window size: 600

CONDITIONAL SWAPPING
SD mult for swap: 1.0
swap count on AE: 3585
swap count on DT: 2010

total time elapsed: 7.178304195404053 seconds

END ..