

--------------------------------------------------------------------------------
[INFO] print datetime here
[INFO] report for data-file: /Users/adrian/work/daqaethmobile/dynamic/data/03_baselined/2019-01-30_Analysis-L-B10.csv
--------------------------------------------------------------------------------

Window size: 600

CONDITIONAL SWAPPING
SD mult for swap: 1.0
swap count on AE: 3906
swap count on DT: 2011

total time elapsed: 7.836992979049683 seconds

END ..